Tablas Pivotantes
…
```r
library(datos)
library(tidyr)

pivot_longer(
  data = pinguinos,
  cols = largo_pico_mm:masa_corporal_g,
  names_to = c("variable", "estructura", "unidad"),
  values_to = "valor",
  names_sep = "_"
)
```

```
## # A tibble: 1,376 x 8
##    especie isla      sexo    anio variable estructura unidad  valor
##    <fct>   <fct>     <fct>  <int> <chr>    <chr>      <chr>   <dbl>
##  1 Adelia  Torgersen macho   2007 largo    pico       mm       39.1
##  2 Adelia  Torgersen macho   2007 alto     pico       mm       18.7
##  3 Adelia  Torgersen macho   2007 largo    aleta      mm      181  
##  4 Adelia  Torgersen macho   2007 masa     corporal   g      3750  
##  5 Adelia  Torgersen hembra  2007 largo    pico       mm       39.5
##  6 Adelia  Torgersen hembra  2007 alto     pico       mm       17.4
##  7 Adelia  Torgersen hembra  2007 largo    aleta      mm      186  
##  8 Adelia  Torgersen hembra  2007 masa     corporal   g      3800  
##  9 Adelia  Torgersen hembra  2007 largo    pico       mm       40.3
## 10 Adelia  Torgersen hembra  2007 alto     pico       mm       18  
## # ... with 1,366 more rows
```

---
# `pivot_wider()` 

Para usar `pivot_wider()` debemos pensar en la l贸gica inversa y utilizar **from** en vez de **to**.

La siguiente es una tabla que resume los promedios anuales para cada variable:

```r
media_anual
```

```
## # A tibble: 12 x 3
## # Groups:   anio [3]
##    anio variable         media
##   <int> <chr>            <dbl>
## 1  2007 alto_pico_mm      17.4
## 2  2007 largo_aleta_mm   197. 
## 3  2007 largo_pico_mm     43.7
## 4  2007 masa_corporal_g 4125. 
## 5  2008 alto_pico_mm      16.9
## # ... with 7 more rows
```
…
