…
# Concept map

# Formative asessmet

``` r
# devtools::install_github("cienciadedatos/datos")

library(datos)

pinguinos
```

    ## # A tibble: 344 x 8
    ##    especie isla  largo_pico_mm alto_pico_mm largo_aleta_mm masa_corporal_g sexo 
    ##    <fct>   <fct>         <dbl>        <dbl>          <int>           <int> <fct>
    ##  1 Adelia  Torg~          39.1         18.7            181            3750 macho
    ##  2 Adelia  Torg~          39.5         17.4            186            3800 hemb~
    ##  3 Adelia  Torg~          40.3         18              195            3250 hemb~
    ##  4 Adelia  Torg~          NA           NA               NA              NA <NA> 
    ##  5 Adelia  Torg~          36.7         19.3            193            3450 hemb~
    ##  6 Adelia  Torg~          39.3         20.6            190            3650 macho
    ##  7 Adelia  Torg~          38.9         17.8            181            3625 hemb~
    ##  8 Adelia  Torg~          39.2         19.6            195            4675 macho
    ##  9 Adelia  Torg~          34.1         18.1            193            3475 <NA> 
    ## 10 Adelia  Torg~          42           20.2            190            4250 <NA> 
    ## # ... with 334 more rows, and 1 more variable: anio <int>
